<?xml version="1.0" encoding="utf-8"?>
<!-- Generator: Adobe Illustrator 16.0.4, SVG Export Plug-In . SVG Version: 6.00 Build 0)  -->
<!DOCTYPE svg PUBLIC "-//W3C//DTD SVG 1.1//EN" "http://www.w3.org/Graphics/SVG/1.1/DTD/svg11.dtd">
<svg version="1.1" id="Layer_1" xmlns="http://www.w3.org/2000/svg" xmlns:xlink="http://www.w3.org/1999/xlink" x="0px" y="0px"
	 width="40px" height="40px" viewBox="0 0 40 40" enable-background="new 0 0 40 40" xml:space="preserve">
<path fill="#0066A7" d="M31.319,15.154c-0.363-1.369-0.807-2.215-1.33-2.697c-0.523-0.484-1.611-0.605-9.988-0.605
	c-8.379,0-9.467,0.121-9.988,0.605c-0.525,0.482-0.969,1.328-1.328,2.697c-0.365,1.373-0.404,4.834-0.404,4.834
	c0,4.551,0.803,6.807,1.852,7.572s9.869,0.564,9.869,0.564s8.82,0.201,9.867-0.564c1.049-0.766,1.852-3.021,1.852-7.572
	C31.72,19.988,31.681,16.527,31.319,15.154 M17.626,24.297v-8.619l6.604,4.311L17.626,24.297z"/>
</svg>
