<?xml version="1.0" encoding="utf-8"?>
<!-- Generator: Adobe Illustrator 16.0.4, SVG Export Plug-In . SVG Version: 6.00 Build 0)  -->
<!DOCTYPE svg PUBLIC "-//W3C//DTD SVG 1.1//EN" "http://www.w3.org/Graphics/SVG/1.1/DTD/svg11.dtd">
<svg version="1.1" id="Layer_1" xmlns="http://www.w3.org/2000/svg" xmlns:xlink="http://www.w3.org/1999/xlink" x="0px" y="0px"
	 width="40px" height="40px" viewBox="0 0 40 40" enable-background="new 0 0 40 40" xml:space="preserve">
<g>
	<path fill="#0066A7" d="M15.656,13.685c0,1.109-0.898,2.006-2.008,2.006s-2.008-0.896-2.008-2.006s0.898-2.01,2.008-2.01
		S15.656,12.575,15.656,13.685"/>
	<rect x="11.9" y="17.204" fill="#0066A7" width="3.467" height="11.121"/>
	<path fill="#0066A7" d="M17.541,28.325h3.453v-5.738c0,0-0.131-2.594,1.947-2.594c2.072,0,1.928,1.961,1.928,2.609v5.723h3.486
		v-6.031c0,0,0.211-4.377-2.352-5.09s-4.246,0.113-5.141,1.572v-1.572h-3.322V28.325z"/>
</g>
</svg>
