<svg version="1.1" id="breadcrumb-home" xmlns="http://www.w3.org/2000/svg" xmlns:xlink="http://www.w3.org/1999/xlink" x="0px" y="0px" width="26px" height="23.428px" viewBox="0 0 26 23.428" enable-background="new 0 0 26 23.428" xml:space="preserve">
	<polygon fill="#FFFFFF" points="13,0 0,10.808 3.388,10.808 3.388,23.428 9.236,23.428 9.236,13.194 16.546,13.194 16.546,23.428 22.394,23.428 22.394,10.808 26,10.808 "/>
</svg>
