<?xml version="1.0" encoding="utf-8"?>
<!-- Generator: Adobe Illustrator 16.0.4, SVG Export Plug-In . SVG Version: 6.00 Build 0)  -->
<!DOCTYPE svg PUBLIC "-//W3C//DTD SVG 1.1//EN" "http://www.w3.org/Graphics/SVG/1.1/DTD/svg11.dtd">
<svg version="1.1" id="Layer_1" xmlns="http://www.w3.org/2000/svg" xmlns:xlink="http://www.w3.org/1999/xlink" x="0px" y="0px"
	 width="23.44px" height="22.16px" viewBox="0 0 23.44 22.16" enable-background="new 0 0 23.44 22.16" xml:space="preserve">
<rect x="-7.446" y="-8.086" fill="#FFFFFF" width="38.332" height="38.332"/>
<path fill="#0066A7" d="M7.376,4.766c0,1.109-0.898,2.006-2.008,2.006S3.361,5.875,3.361,4.766s0.898-2.01,2.008-2.01
	S7.376,3.656,7.376,4.766"/>
<rect x="3.621" y="8.285" fill="#0066A7" width="3.467" height="11.121"/>
<path fill="#0066A7" d="M9.261,19.406h3.453v-5.738c0,0-0.131-2.594,1.947-2.594c2.072,0,1.928,1.961,1.928,2.609v5.723h3.486
	v-6.031c0,0,0.211-4.377-2.352-5.09s-4.246,0.113-5.141,1.572V8.285H9.261V19.406z"/>
</svg>
