<?xml version="1.0" encoding="utf-8"?>
<!-- Generator: Adobe Illustrator 16.0.4, SVG Export Plug-In . SVG Version: 6.00 Build 0)  -->
<!DOCTYPE svg PUBLIC "-//W3C//DTD SVG 1.1//EN" "http://www.w3.org/Graphics/SVG/1.1/DTD/svg11.dtd">
<svg version="1.1" id="Layer_1" xmlns="http://www.w3.org/2000/svg" xmlns:xlink="http://www.w3.org/1999/xlink" x="0px" y="0px"
	 width="23.439px" height="22.16px" viewBox="0 0 23.439 22.16" enable-background="new 0 0 23.439 22.16" xml:space="preserve">
<path fill="#0066A7" d="M23.039,6.234c-0.363-1.369-0.807-2.215-1.33-2.697c-0.523-0.484-1.611-0.605-9.988-0.605
	c-8.379,0-9.467,0.121-9.988,0.605C1.207,4.019,0.764,4.865,0.404,6.234C0.039,7.607,0,11.068,0,11.068
	c0,4.551,0.803,6.807,1.852,7.572s9.869,0.564,9.869,0.564s8.82,0.201,9.867-0.564c1.049-0.766,1.852-3.021,1.852-7.572
	C23.439,11.068,23.4,7.607,23.039,6.234 M9.346,15.376V6.757l6.604,4.311L9.346,15.376z"/>
</svg>
